…
## ── Conflicts ──────────────────────────────────── tidyverse_conflicts() ──
## x dplyr::filter() masks stats::filter()
## x dplyr::lag()    masks stats::lag()

library(tidyr)

Dataset: WHO

mydata <- who
mydata

## # A tibble: 7,240 x 60
##    country iso2  iso3   year new_sp_m014 new_sp_m1524 new_sp_m2534 new_sp_m3544
##    <chr>   <chr> <chr> <int>       <int>        <int>        <int>        <int>
##  1 Afghan… AF    AFG    1980          NA           NA           NA           NA
##  2 Afghan… AF    AFG    1981          NA           NA           NA           NA
##  3 Afghan… AF    AFG    1982          NA           NA           NA           NA
##  4 Afghan… AF    AFG    1983          NA           NA           NA           NA
##  5 Afghan… AF    AFG    1984          NA           NA           NA           NA
##  6 Afghan… AF    AFG    1985          NA           NA           NA           NA
##  7 Afghan… AF    AFG    1986          NA           NA           NA           NA
##  8 Afghan… AF    AFG    1987          NA           NA           NA           NA
##  9 Afghan… AF    AFG    1988          NA           NA           NA           NA
## 10 Afghan… AF    AFG    1989          NA           NA           NA           NA
## # … with 7,230 more rows, and 52 more variables: new_sp_m4554 <int>,
## #   new_sp_m5564 <int>, new_sp_m65 <int>, new_sp_f014 <int>,
## #   new_sp_f1524 <int>, new_sp_f2534 <int>, new_sp_f3544 <int>,
## #   new_sp_f4554 <int>, new_sp_f5564 <int>, new_sp_f65 <int>,
## #   new_sn_m014 <int>, new_sn_m1524 <int>, new_sn_m2534 <int>,
## #   new_sn_m3544 <int>, new_sn_m4554 <int>, new_sn_m5564 <int>,
## #   new_sn_m65 <int>, new_sn_f014 <int>, new_sn_f1524 <int>,
## #   new_sn_f2534 <int>, new_sn_f3544 <int>, new_sn_f4554 <int>,
## #   new_sn_f5564 <int>, new_sn_f65 <int>, new_ep_m014 <int>,
…
# combine all the TB cases columns
mydata<-mydata %>%
  pivot_longer(cols = new_sp_m014:newrel_f65,names_to = "cases",values_to = "value")
mydata

## # A tibble: 405,440 x 6
##    country     iso2  iso3   year cases        value
##    <chr>       <chr> <chr> <int> <chr>        <int>
##  1 Afghanistan AF    AFG    1980 new_sp_m014     NA
##  2 Afghanistan AF    AFG    1980 new_sp_m1524    NA
##  3 Afghanistan AF    AFG    1980 new_sp_m2534    NA
##  4 Afghanistan AF    AFG    1980 new_sp_m3544    NA
##  5 Afghanistan AF    AFG    1980 new_sp_m4554    NA
##  6 Afghanistan AF    AFG    1980 new_sp_m5564    NA
##  7 Afghanistan AF    AFG    1980 new_sp_m65      NA
##  8 Afghanistan AF    AFG    1980 new_sp_f014     NA
##  9 Afghanistan AF    AFG    1980 new_sp_f1524    NA
## 10 Afghanistan AF    AFG    1980 new_sp_f2534    NA
## # … with 405,430 more rows

# change "newrel" to "new_rel" to match the pattern
mydata <- mydata %>%
  mutate(cases = str_replace(cases, pattern = "newr", replacement = "new_r")) %>%
  separate(col = cases, into=c("new","diagnosis","gender"), sep="_")
mydata

## # A tibble: 405,440 x 8
##    country     iso2  iso3   year new   diagnosis gender value
##    <chr>       <chr> <chr> <int> <chr> <chr>     <chr>  <int>
##  1 Afghanistan AF    AFG    1980 new   sp        m014      NA
##  2 Afghanistan AF    AFG    1980 new   sp        m1524     NA
##  3 Afghanistan AF    AFG    1980 new   sp        m2534     NA
##  4 Afghanistan AF    AFG    1980 new   sp        m3544     NA
##  5 Afghanistan AF    AFG    1980 new   sp        m4554     NA
##  6 Afghanistan AF    AFG    1980 new   sp        m5564     NA
##  7 Afghanistan AF    AFG    1980 new   sp        m65       NA
##  8 Afghanistan AF    AFG    1980 new   sp        f014      NA
##  9 Afghanistan AF    AFG    1980 new   sp        f1524     NA
## 10 Afghanistan AF    AFG    1980 new   sp        f2534     NA
## # … with 405,430 more rows

mydata<-mydata %>%
  separate(col=gender,into= c("gender","age"),sep = 1)
mydata

## # A tibble: 405,440 x 9
##    country     iso2  iso3   year new   diagnosis gender age   value
##    <chr>       <chr> <chr> <int> <chr> <chr>     <chr>  <chr> <int>
##  1 Afghanistan AF    AFG    1980 new   sp        m      014      NA
##  2 Afghanistan AF    AFG    1980 new   sp        m      1524     NA
##  3 Afghanistan AF    AFG    1980 new   sp        m      2534     NA
##  4 Afghanistan AF    AFG    1980 new   sp        m      3544     NA
##  5 Afghanistan AF    AFG    1980 new   sp        m      4554     NA
##  6 Afghanistan AF    AFG    1980 new   sp        m      5564     NA
##  7 Afghanistan AF    AFG    1980 new   sp        m      65       NA
##  8 Afghanistan AF    AFG    1980 new   sp        f      014      NA
##  9 Afghanistan AF    AFG    1980 new   sp        f      1524     NA
## 10 Afghanistan AF    AFG    1980 new   sp        f      2534     NA
## # … with 405,430 more rows
…
  mutate(
    age = recode_factor(
      age,
      "014" = "0-14",
      "1524" = "15-24",
      "2534" = "25-34",
      "3544" = "35-44",
      "4554" = "45-54",
      "5564" = "55-64",
      "65" = "65 and above"
    )
  )
mydata

## # A tibble: 405,440 x 9
##    country     iso2  iso3   year new   diagnosis gender age          value
##    <chr>       <chr> <chr> <int> <chr> <chr>     <chr>  <fct>        <int>
##  1 Afghanistan AF    AFG    1980 new   sp        m      0-14            NA
##  2 Afghanistan AF    AFG    1980 new   sp        m      15-24           NA
##  3 Afghanistan AF    AFG    1980 new   sp        m      25-34           NA
##  4 Afghanistan AF    AFG    1980 new   sp        m      35-44           NA
##  5 Afghanistan AF    AFG    1980 new   sp        m      45-54           NA
##  6 Afghanistan AF    AFG    1980 new   sp        m      55-64           NA
##  7 Afghanistan AF    AFG    1980 new   sp        m      65 and above    NA
##  8 Afghanistan AF    AFG    1980 new   sp        f      0-14            NA
##  9 Afghanistan AF    AFG    1980 new   sp        f      15-24           NA
## 10 Afghanistan AF    AFG    1980 new   sp        f      25-34           NA
## # … with 405,430 more rows

# remove new
mydata<-mydata %>% select(-new)

# factor variable
mydata <- mydata %>%
  mutate(gender = parse_factor(gender, levels = c("f","m")),
         diagnosis = parse_factor(diagnosis)) %>%
  rename(cases = value)
mydata

## # A tibble: 405,440 x 8
##    country     iso2  iso3   year diagnosis gender age          cases
##    <chr>       <chr> <chr> <int> <fct>     <fct>  <fct>        <int>
##  1 Afghanistan AF    AFG    1980 sp        m      0-14            NA
##  2 Afghanistan AF    AFG    1980 sp        m      15-24           NA
##  3 Afghanistan AF    AFG    1980 sp        m      25-34           NA
##  4 Afghanistan AF    AFG    1980 sp        m      35-44           NA
##  5 Afghanistan AF    AFG    1980 sp        m      45-54           NA
##  6 Afghanistan AF    AFG    1980 sp        m      55-64           NA
##  7 Afghanistan AF    AFG    1980 sp        m      65 and above    NA
##  8 Afghanistan AF    AFG    1980 sp        f      0-14            NA
##  9 Afghanistan AF    AFG    1980 sp        f      15-24           NA
## 10 Afghanistan AF    AFG    1980 sp        f      25-34           NA
## # … with 405,430 more rows
